<svg xmlns="http://www.w3.org/2000/svg" x="0px" y="0px" width="100" height="100" viewBox="0 0 48 48">
  <path
    d="M43,11h-3.437L24.356,5.2c-0.014-0.005-0.087-0.029-0.102-0.034c-0.22-0.073-0.458-0.067-0.672,0.016L8.421,11H5v2h0.013	c0,0.042-0.011,0.082-0.005,0.124l2.872,22.972C8,37.061,8.584,37.911,9.444,38.371l14.085,7.512C23.676,45.961,23.838,46,24,46	s0.324-0.039,0.471-0.117l14.086-7.513c0.858-0.459,1.443-1.31,1.563-2.274l2.872-22.972c0.005-0.042-0.005-0.082-0.005-0.124H43V11	z"></path>
  <path fill="#fff"
        d="M24,4.135l-0.059-0.02L6,11l2.871,22.971c0.081,0.645,0.47,1.211,1.043,1.517L24,43l14.085-7.512	c0.574-0.306,0.963-0.872,1.043-1.517L42,11L24,4.135z"></path>
  <path
    d="M24,44c-0.162,0-0.324-0.039-0.471-0.117L9.444,36.371C8.584,35.911,8,35.061,7.879,34.096L5.008,11.124	c-0.057-0.456,0.205-0.893,0.634-1.058l17.941-6.885c0.214-0.082,0.453-0.09,0.672-0.016c0.014,0.005,0.087,0.029,0.102,0.034	l18,6.865c0.43,0.164,0.693,0.602,0.636,1.059l-2.872,22.972c-0.121,0.965-0.705,1.815-1.563,2.274l-14.086,7.513	C24.324,43.961,24.162,44,24,44z M7.089,11.653l2.774,22.194c0.041,0.321,0.235,0.605,0.522,0.759L24,41.866l13.615-7.261	c0.286-0.152,0.481-0.437,0.521-0.758l2.774-22.193l-16.964-6.47L7.089,11.653z"></path>
  <path
    d="M35.987,32L24,7.996L12.013,32h4.409l2.445-5H24h5.133l2.445,5H35.987z M24,23h-3.177L24,16.504L27.177,23H24z"></path>
</svg>
